Sims and Viz
…
# Create a data frame for simulating sample sizes 5:20
sim_data <- data.frame(samp_size = 5:20) %>%
  # for each sample size
  rowwise(samp_size) %>%
  #replicate (1000 times)
  summarise(sim_data = sample(vole_vaso,
                   size = samp_size,
                   replace = TRUE))

## `summarise()` regrouping output by 'samp_size' (override with `.groups` argument)

sim_data

## # A tibble: 200 x 2
## # Groups:   samp_size [16]
##    samp_size sim_data
##        <int>    <dbl>
##  1         5       13
##  2         5       88
##  3         5       59
##  4         5       60
##  5         5       86
##  6         6       35
##  7         6       96
##  8         6        6
##  9         6       60
## 10         6       88
## # ... with 190 more rows
…
  # Replicate calculating estimated parameters 
  # from a random draw 
  # some # of times
  summarize(upper_quarts = replicate(1000,
                                  sample(vole_vaso,
                                         size = samp_size,
                                        replace = TRUE) %>% 
                                    quantile(probs = 0.75)))

## `summarise()` regrouping output by 'samp_size' (override with `.groups` argument)

sim_upper_quarts

## # A tibble: 200,000 x 2
## # Groups:   samp_size [16]
##    samp_size upper_quarts
##        <int>        <dbl>
##  1         5           94
##  2         5           47
##  3         5           88
##  4         5           94
##  5         5           88
##  6         5           94
##  7         5           52
##  8         5           70
##  9         5           86
## 10         5           86
## # ... with 199,990 more rows
…
  # Replicate calculating estimated parameters 
  # from a random draw 
  # some # of times
  summarise(upper_quart_SE = sample(vole_vaso,
                        size = samp_size,
                        replace = TRUE)%>%
                        sd(upper_quarts)/sqrt(length(upper_quarts)))

## `summarise()` regrouping output by 'samp_size' (override with `.groups` argument)

upper_quart_SE

## # A tibble: 200,000 x 2
## # Groups:   samp_size [16]
##    samp_size upper_quart_SE
##        <int>          <dbl>
##  1         5           22.3
##  2         5           33.8
##  3         5           15.3
##  4         5           25.3
##  5         5           15.6
##  6         5           35.6
##  7         5           17.7
##  8         5           44.4
##  9         5           31.8
## 10         5           19.2
## # ... with 199,990 more rows
…
## Parsed with column specification:
## cols(
##   Year = col_double(),
##   Month = col_double(),
##   Day = col_double(),
##   Extent = col_double(),
##   Missing = col_double(),
##   Month_Name = col_character()
## )

ice

## # A tibble: 458 x 6
##     Year Month   Day Extent Missing Month_Name
##    <dbl> <dbl> <dbl>  <dbl>   <dbl> <fct>     
##  1  1978    11     1  10.7        0 Nov       
##  2  1978    12     1  12.7        0 Dec       
##  3  1979     2     1  15.9        0 Feb       
##  4  1979     3     1  16.6        0 Mar       
##  5  1979     6     1  13.1        0 Jun       
##  6  1979     7     1  11.6        0 Jul       
##  7  1979     9     1   7.23       0 Sep       
##  8  1979    10     1   7.40       0 Oct       
##  9  1980     1     1  14.2        0 Jan       
## 10  1980     3     1  16.2        0 Mar       
## # ... with 448 more rows
…
3c. Use dplyr to get the annual minimum sea ice extent. Plot minimum ice by year. What do you observe?

# Create a data frame for minimum sea ice and summarized into a new data frame
min_ice_extent <- ice %>% 
  group_by(Year) %>%
 summarise(min_sea_ice = min(Extent))

## `summarise()` ungrouping output (override with `.groups` argument)

min_ice_extent

## # A tibble: 39 x 2
##     Year min_sea_ice
##    <dbl>       <dbl>
##  1  1978       10.7 
##  2  1979        7.23
##  3  1980        7.54
##  4  1981        7.20
##  5  1982        7.40
##  6  1983        7.32
##  7  1984        6.83
##  8  1985        6.72
##  9  1986        7.23
## 10  1987        6.89
## # ... with 29 more rows
…
