Functions and Tidy Data
…
## See spec(...) for full column specifications.

# view data
president_polls

## # A tibble: 9,377 x 38
##    question_id poll_id cycle state pollster_id pollster sponsor_ids sponsors
##          <dbl>   <dbl> <dbl> <chr>       <dbl> <chr>          <dbl> <chr>   
##  1      132305   70723  2020 <NA>         1610 USC Dor~          NA <NA>    
##  2      132305   70723  2020 <NA>         1610 USC Dor~          NA <NA>    
##  3      132306   70723  2020 <NA>         1610 USC Dor~          NA <NA>    
##  4      132306   70723  2020 <NA>         1610 USC Dor~          NA <NA>    
##  5      132307   70723  2020 <NA>         1610 USC Dor~          NA <NA>    
##  6      132307   70723  2020 <NA>         1610 USC Dor~          NA <NA>    
##  7      132272   70715  2020 Geor~         383 Public ~          NA <NA>    
##  8      132272   70715  2020 Geor~         383 Public ~          NA <NA>    
##  9      132284   70718  2020 <NA>           11 ABC New~         378 The Was~
## 10      132284   70718  2020 <NA>           11 ABC New~         378 The Was~
## # ... with 9,367 more rows, and 30 more variables: display_name <chr>,
## #   pollster_rating_id <dbl>, pollster_rating_name <chr>, fte_grade <chr>,
## #   sample_size <dbl>, population <chr>, population_full <chr>,
## #   methodology <chr>, office_type <chr>, seat_number <dbl>, seat_name <lgl>,
## #   start_date <chr>, end_date <chr>, election_date <chr>,
## #   sponsor_candidate <chr>, internal <lgl>, partisan <chr>, tracking <lgl>,
## #   nationwide_batch <lgl>, ranked_choice_reallocated <lgl>, created_at <chr>,
## #   notes <chr>, url <chr>, stage <chr>, race_id <dbl>, answer <chr>,
## #   candidate_id <dbl>, candidate_name <chr>, candidate_party <chr>, pct <dbl>
…
4b. Get just the polling data for this last week (from 9/29 to today). Filter on start_date. Also filter down to just Biden and Trump (see candidate_name or answer). Extra credit for using {lubridate} for this, but you can just do a messy %in% string match.

# Covert "start_date" column to Date using lubridate
president_polls$start_date <- as.Date(president_polls$start_date, format = "%m/%d/%Y")

polls <- president_polls %>%
  #filtered start dates from 9/29 and above and selected "Donald Trump" and "Joseph R. Biden"using lubridate.
  filter(start_date >= "0020-09-29") %>%
  filter(candidate_name %in% c("Donald Trump", "Joseph R. Biden Jr."))

# view polls
polls

## # A tibble: 272 x 38
##    question_id poll_id cycle state pollster_id pollster sponsor_ids sponsors
##          <dbl>   <dbl> <dbl> <chr>       <dbl> <chr>          <dbl> <chr>   
##  1      132272   70715  2020 Geor~         383 Public ~          NA <NA>    
##  2      132272   70715  2020 Geor~         383 Public ~          NA <NA>    
##  3      132284   70718  2020 <NA>           11 ABC New~         378 The Was~
##  4      132284   70718  2020 <NA>           11 ABC New~         378 The Was~
##  5      132285   70718  2020 <NA>           11 ABC New~         378 The Was~
##  6      132285   70718  2020 <NA>           11 ABC New~         378 The Was~
##  7      132286   70718  2020 <NA>           11 ABC New~         378 The Was~
##  8      132286   70718  2020 <NA>           11 ABC New~         378 The Was~
##  9      132287   70718  2020 <NA>           11 ABC New~         378 The Was~
## 10      132287   70718  2020 <NA>           11 ABC New~         378 The Was~
## # ... with 262 more rows, and 30 more variables: display_name <chr>,
## #   pollster_rating_id <dbl>, pollster_rating_name <chr>, fte_grade <chr>,
## #   sample_size <dbl>, population <chr>, population_full <chr>,
## #   methodology <chr>, office_type <chr>, seat_number <dbl>, seat_name <lgl>,
## #   start_date <date>, end_date <chr>, election_date <chr>,
## #   sponsor_candidate <chr>, internal <lgl>, partisan <chr>, tracking <lgl>,
## #   nationwide_batch <lgl>, ranked_choice_reallocated <lgl>, created_at <chr>,
## #   notes <chr>, url <chr>, stage <chr>, race_id <dbl>, answer <chr>,
## #   candidate_id <dbl>, candidate_name <chr>, candidate_party <chr>, pct <dbl>
…
# to get the bootstrapped average percentage for each candidate
polls_wide %>%
  
  # group by state
  group_by(state) %>%
  # determine bootstrapped average percentage for each candidate using function from question 2
  summarise(boot_avg_pct_trump = get_01_boot_samp(mean(`Donald Trump`, na.rm = TRUE)), boot_avg_pct_biden = get_01_boot_samp(mean(`Joseph R. Biden Jr.`, na.rm = TRUE)))

## `summarise()` ungrouping output (override with `.groups` argument)

## # A tibble: 23 x 3
##    state     boot_avg_pct_trump boot_avg_pct_biden
##    <chr>                  <int>              <int>
##  1 Alabama                   30                 34
##  2 Arizona                   31                 45
##  3 Colorado                  16                 48
##  4 Florida                    7                 22
##  5 Georgia                   24                 15
##  6 Iowa                      36                 22
##  7 Maryland                  10                  6
##  8 Michigan                  11                  3
##  9 Minnesota                 33                 14
## 10 Missouri                  18                 19
## # ... with 13 more rows
…
# make a unique ID by pasting together question_id, poll_id and state using mutate and paste
new_polls_wide <- polls_wide %>%
  group_by(state) %>%
  mutate('question_id-poll_id-state' = paste(as.character(question_id), as.character(poll_id), as.character(state), sep = "_")) %>%
  # group new dataframe by new ID
  group_by(`question_id-poll_id-state`) %>%
  # calculate average differences between the two candidates nationwide
  summarise(Trump = na.omit(`Donald Trump`), Biden = na.omit(`Joseph R. Biden Jr.`), difference = Trump - Biden, average = (Trump + Biden)/2, avg_difference = difference/average)

## `summarise()` regrouping output by 'question_id-poll_id-state' (override with `.groups` argument)

# view data with average differences
new_polls_wide

## # A tibble: 135 x 6
## # Groups:   question_id-poll_id-state [135]
##    `question_id-poll_id-state` Trump Biden difference average avg_difference
##    <chr>                       <dbl> <dbl>      <dbl>   <dbl>          <dbl>
##  1 130599_70105_NA              41    54        -13      47.5        -0.274 
##  2 130607_70108_Georgia         44.9  46.6       -1.7    45.8        -0.0372
##  3 130619_70111_NA              38    43         -5      40.5        -0.123 
##  4 130620_70111_NA              40    47         -7      43.5        -0.161 
##  5 130621_70111_NA              41    50         -9      45.5        -0.198 
##  6 130623_70112_New Hampshire   45.3  53.1       -7.8    49.2        -0.159 
##  7 130649_70122_NA              45.9  48.6       -2.7    47.2        -0.0571
##  8 130657_70129_Michigan        44    50         -6      47          -0.128 
##  9 130667_70136_NA              41    51        -10      46          -0.217 
## 10 130682_70142_NA              40    47         -7      43.5        -0.161 
## # ... with 125 more rows
…
5b. Yuck. Can you turn this into something usable? Say, first make it a tibble or data frame, and then pivot it to long, such that you end up with a column that has an identifier for sim and a column with a single value from that sim?

(Oh, and for all columns, cols = everything())

# convert the matrix of simulated draws to a long dataframe
samp_draws_long <- as.data.frame(samp_draws) %>%
  pivot_longer(cols = everything(),
               # give column names
               names_to = "simulation",
               values_to = "boot_mean")

# view data frame
samp_draws_long

## # A tibble: 50,000 x 2
##    simulation boot_mean
##    <chr>          <dbl>
##  1 V1              47.4
##  2 V2              45.9
##  3 V3              54.3
##  4 V4              51.8
##  5 V5              50.3
##  6 V6              47.1
##  7 V7              48.8
##  8 V8              45.4
##  9 V9              47.9
## 10 V10             47.0
## # ... with 49,990 more rows
…
