Cross-Validation and Bayes
…
Does that result hold up, or is it due to overfitting? Lets evaluate by comparing 5-fold CV scores using RMSE. Lets do this efficiently, though!

A. Get things ready! Make a 5-fold cross validation tibble using rsample::vfold_cv() and then combine each possible fold with the polynomials 1:5 using tidyr::crossing()

# 5-Fold Cross-Validation

# make a folded data set object using tidyr::crossing()
progesterone_five_fold <- vfold_cv(progesterone_data, v = 5) %>%
  # use polynomials 1:5
  crossing(polynomial = 1:5)

# view CV data
progesterone_five_fold

## # A tibble: 25 x 3
##    splits         id    polynomial
##    <list>         <chr>      <int>
##  1 <split [24/6]> Fold1          1
##  2 <split [24/6]> Fold1          2
##  3 <split [24/6]> Fold1          3
##  4 <split [24/6]> Fold1          4
##  5 <split [24/6]> Fold1          5
##  6 <split [24/6]> Fold2          1
##  7 <split [24/6]> Fold2          2
##  8 <split [24/6]> Fold2          3
##  9 <split [24/6]> Fold2          4
## 10 <split [24/6]> Fold2          5
## # ... with 15 more rows
…
# start with our tibble
prog_mod <- progesterone_five_fold %>%
  # create a new column, which we make with map2
  # iterating over all splits AND polynomials
 mutate(mods = map2(splits, 
                       polynomial, 
                       ~lm(ventilation ~ poly(progesterone, .y),
                           data = analysis(.x))))
                    #for each split, fit a model using
                    #the training data set

# view data
prog_mod

## # A tibble: 25 x 4
##    splits         id    polynomial mods  
##    <list>         <chr>      <int> <list>
##  1 <split [24/6]> Fold1          1 <lm>  
##  2 <split [24/6]> Fold1          2 <lm>  
##  3 <split [24/6]> Fold1          3 <lm>  
##  4 <split [24/6]> Fold1          4 <lm>  
##  5 <split [24/6]> Fold1          5 <lm>  
##  6 <split [24/6]> Fold2          1 <lm>  
##  7 <split [24/6]> Fold2          2 <lm>  
##  8 <split [24/6]> Fold2          3 <lm>  
##  9 <split [24/6]> Fold2          4 <lm>  
## 10 <split [24/6]> Fold2          5 <lm>  
## # ... with 15 more rows

C. Great! Now, calculate the rmse for each fold/polynomial combination as we did in lab.

progesterone_five_fold_rmse <- prog_mod %>%
  # create a new column, which we make with map2
  # iterating over all splits AND fit models
  mutate(rmse = map2_dbl(.x = splits, .y = mods,
                         ~rmse(model = .y,
                               data = assessment(.x)))) # x is a standing for every element of split

# view data
progesterone_five_fold_rmse

## # A tibble: 25 x 5
##    splits         id    polynomial mods    rmse
##    <list>         <chr>      <int> <list> <dbl>
##  1 <split [24/6]> Fold1          1 <lm>    8.10
##  2 <split [24/6]> Fold1          2 <lm>    7.78
##  3 <split [24/6]> Fold1          3 <lm>    7.75
##  4 <split [24/6]> Fold1          4 <lm>    7.09
##  5 <split [24/6]> Fold1          5 <lm>   10.1 
##  6 <split [24/6]> Fold2          1 <lm>   12.6 
##  7 <split [24/6]> Fold2          2 <lm>   13.1 
##  8 <split [24/6]> Fold2          3 <lm>   13.1 
##  9 <split [24/6]> Fold2          4 <lm>   12.9 
## 10 <split [24/6]> Fold2          5 <lm>   13.1 
## # ... with 15 more rows
…
A. Lets start with the Palmer Penguins data. Lets look at just the Gentoo. Why dont you plot the distribution of the average flipper length of females. Well use this data for the exercise. Remember to remove NAs - it will make the rest of the exercise easier. 1 EC for each thing you do to snaz the plot up.

# create an object containing flipper length measurements of all Gentoo female penguins
fem_flip <- penguins %>%
  group_by(species) %>%
  filter(species == "Gentoo", sex == "female") %>%
  summarise(flipper_length_mm, sex) %>%
  na.omit()

## `summarise()` regrouping output by 'species' (override with `.groups` argument)

# view object
fem_flip 

## # A tibble: 58 x 3
## # Groups:   species [1]
##    species flipper_length_mm sex   
##    <fct>               <int> <fct> 
##  1 Gentoo                211 female
##  2 Gentoo                210 female
##  3 Gentoo                210 female
##  4 Gentoo                211 female
##  5 Gentoo                209 female
##  6 Gentoo                214 female
##  7 Gentoo                214 female
##  8 Gentoo                210 female
##  9 Gentoo                210 female
## 10 Gentoo                209 female
## # ... with 48 more rows
…
B. OK, this is pretty normal, with a mean of 212.71 and sd of 3.9. Make a grid to search a number of values around that mean and SD, just as you did for likelihood. Lets say 100 values of each parameter.

# make a grid to search a number of values around the frequentist mean and SD
fem_flip_grid <- crossing(m = seq(212.5, 215.5, length.out = 100),
                            s = seq(1.5, 4.5, length.out = 100))
# view object
fem_flip_grid

## # A tibble: 10,000 x 2
##        m     s
##    <dbl> <dbl>
##  1  212.  1.5 
##  2  212.  1.53
##  3  212.  1.56
##  4  212.  1.59
##  5  212.  1.62
##  6  212.  1.65
##  7  212.  1.68
##  8  212.  1.71
##  9  212.  1.74
## 10  212.  1.77
## # ... with 9,990 more rows
…
D. Great! Now use this function with your sample grid to get the numerator of the posterior, and then standardize with the p(D) - the sum of all numerators - to get a full posterior. Note, as were working in logs, we just subtract log(p(D)) What is the modal estimate of each parameter? How do they compare to the standard frequentist estimate?

Note: log(p(d)) = log(sum(exp(p(D|H)p(H))))

# to get numerator of posterior
fem_flip_grid_post <- fem_flip_grid %>%
  rowwise() %>%
  mutate(pois_numerator = num_function(m, s),
         poisterior = exp(pois_numerator)) %>%
  ungroup() %>%
  na.omit()

fem_flip_grid_post

## # A tibble: 10,000 x 4
##        m     s pois_numerator poisterior
##    <dbl> <dbl>          <dbl>      <dbl>
##  1  212.  1.5           -277.  5.86e-121
##  2  212.  1.53          -270.  3.55e-118
##  3  212.  1.56          -264.  1.43e-115
##  4  212.  1.59          -259.  3.90e-113
##  5  212.  1.62          -254.  7.51e-111
##  6  212.  1.65          -249.  1.04e-108
##  7  212.  1.68          -244.  1.07e-106
##  8  212.  1.71          -240.  8.29e-105
##  9  212.  1.74          -236.  4.96e-103
## 10  212.  1.77          -232.  2.32e-101
## # ... with 9,990 more rows
…
}

# get posterior 
fem_flip_grid_post_2 <- fem_flip_grid_post %>%
  rowwise() %>%
  mutate(pois_numerator_2 = num_function_2(m, s),
         poisterior_2 = exp(pois_numerator_2)) %>%
  ungroup() %>%
  na.omit()

# view posterior
fem_flip_grid_post_2

## # A tibble: 10,000 x 6
##        m     s pois_numerator poisterior pois_numerator_2 poisterior_2
##    <dbl> <dbl>          <dbl>      <dbl>            <dbl>        <dbl>
##  1  212.  1.5           -277.  5.86e-121             -Inf            0
##  2  212.  1.53          -270.  3.55e-118             -Inf            0
##  3  212.  1.56          -264.  1.43e-115             -Inf            0
##  4  212.  1.59          -259.  3.90e-113             -Inf            0
##  5  212.  1.62          -254.  7.51e-111             -Inf            0
##  6  212.  1.65          -249.  1.04e-108             -Inf            0
##  7  212.  1.68          -244.  1.07e-106             -Inf            0
##  8  212.  1.71          -240.  8.29e-105             -Inf            0
##  9  212.  1.74          -236.  4.96e-103             -Inf            0
## 10  212.  1.77          -232.  2.32e-101             -Inf            0
## # ... with 9,990 more rows
…
